<svg xmlns="http://www.w3.org/2000/svg" width="753.325" height="487.907" viewBox="0 0 753.325 487.907">
  <g id="Group_33" data-name="Group 33" transform="translate(-583 -340)">
    <g id="undraw_opened_tabs_ly11" transform="translate(583 393)">
      <ellipse id="Ellipse_108" data-name="Ellipse 108" cx="122.513" cy="14.075" rx="122.513" ry="14.075" transform="translate(202.72 406.757)" fill="#e6e6e6"/>
      <rect id="Rectangle_132" data-name="Rectangle 132" width="251.105" height="160.818" transform="translate(511.046 52.601) rotate(15.236)" fill="#e6e6e6"/>
      <rect id="Rectangle_133" data-name="Rectangle 133" width="236.744" height="131.134" transform="translate(512.048 76.244) rotate(15.236)" fill="#fff"/>
      <rect id="Rectangle_134" data-name="Rectangle 134" width="251.105" height="15.519" transform="translate(510.98 52.436) rotate(15.236)" fill="#32cd32"/>
      <circle id="Ellipse_109" data-name="Ellipse 109" cx="3.753" cy="3.753" r="3.753" transform="translate(516.423 59.23)" fill="#fff"/>
      <circle id="Ellipse_110" data-name="Ellipse 110" cx="3.753" cy="3.753" r="3.753" transform="translate(530.167 62.973)" fill="#fff"/>
      <circle id="Ellipse_111" data-name="Ellipse 111" cx="3.753" cy="3.753" r="3.753" transform="translate(543.91 66.717)" fill="#fff"/>
      <rect id="Rectangle_135" data-name="Rectangle 135" width="209.071" height="13.938" transform="translate(518.876 103.624) rotate(15.236)" fill="#e6e6e6"/>
      <rect id="Rectangle_136" data-name="Rectangle 136" width="209.071" height="13.938" transform="translate(511.135 132.665) rotate(15.236)" fill="#e6e6e6"/>
      <rect id="Rectangle_137" data-name="Rectangle 137" width="209.071" height="13.938" transform="translate(503.395 161.706) rotate(15.236)" fill="#e6e6e6"/>
      <rect id="Rectangle_138" data-name="Rectangle 138" width="251.105" height="160.818" transform="translate(0.107 198.69)" fill="#e6e6e6"/>
      <rect id="Rectangle_139" data-name="Rectangle 139" width="236.744" height="131.134" transform="translate(7.287 221.239)" fill="#fff"/>
      <rect id="Rectangle_140" data-name="Rectangle 140" width="251.105" height="15.519" transform="translate(0 198.547)" fill="#32cd32"/>
      <circle id="Ellipse_112" data-name="Ellipse 112" cx="3.753" cy="3.753" r="3.753" transform="translate(7.889 202.554)" fill="#fff"/>
      <circle id="Ellipse_113" data-name="Ellipse 113" cx="3.753" cy="3.753" r="3.753" transform="translate(22.133 202.554)" fill="#fff"/>
      <circle id="Ellipse_114" data-name="Ellipse 114" cx="3.753" cy="3.753" r="3.753" transform="translate(36.378 202.554)" fill="#fff"/>
      <rect id="Rectangle_141" data-name="Rectangle 141" width="209.071" height="13.938" transform="translate(21.07 245.863)" fill="#e6e6e6"/>
      <rect id="Rectangle_142" data-name="Rectangle 142" width="209.071" height="13.938" transform="translate(21.234 275.916)" fill="#e6e6e6"/>
      <rect id="Rectangle_143" data-name="Rectangle 143" width="209.071" height="13.938" transform="translate(21.397 305.97)" fill="#e6e6e6"/>
      <rect id="Rectangle_144" data-name="Rectangle 144" width="268.995" height="172.277" transform="translate(454.844 248.556)" fill="#e6e6e6"/>
      <rect id="Rectangle_145" data-name="Rectangle 145" width="253.611" height="140.477" transform="translate(462.536 272.711)" fill="#fff"/>
      <rect id="Rectangle_146" data-name="Rectangle 146" width="268.995" height="16.625" transform="translate(454.729 248.403)" fill="#32cd32"/>
      <circle id="Ellipse_115" data-name="Ellipse 115" cx="4.02" cy="4.02" r="4.02" transform="translate(463.18 252.695)" fill="#fff"/>
      <circle id="Ellipse_116" data-name="Ellipse 116" cx="4.02" cy="4.02" r="4.02" transform="translate(478.439 252.695)" fill="#fff"/>
      <circle id="Ellipse_117" data-name="Ellipse 117" cx="4.02" cy="4.02" r="4.02" transform="translate(493.698 252.695)" fill="#fff"/>
      <rect id="Rectangle_147" data-name="Rectangle 147" width="223.967" height="14.931" transform="translate(477.3 299.089)" fill="#e6e6e6"/>
      <rect id="Rectangle_148" data-name="Rectangle 148" width="223.967" height="14.931" transform="translate(477.475 331.285)" fill="#e6e6e6"/>
      <rect id="Rectangle_149" data-name="Rectangle 149" width="223.967" height="14.931" transform="translate(477.65 363.48)" fill="#e6e6e6"/>
      <path id="Path_119" data-name="Path 119" d="M436.172,405.707l-3.706,7.412S417.643,439.06,430,439.06s14.824-22.235,14.824-22.235l1.235-7.412Z" transform="translate(-196.809 -225.829)" fill="#a0616a"/>
      <path id="Path_120" data-name="Path 120" d="M590.771,238.155s1.235,21,4.941,24.706-30.882,0-30.882,0,1.235-23.47,0-24.706S590.771,238.155,590.771,238.155Z" transform="translate(-217.997 -200.335)" fill="#a0616a"/>
      <path id="Path_121" data-name="Path 121" d="M515.524,398.426s-12.353,72.882-12.353,82.764-4.941,22.235-4.941,22.235l-22.342,83.688,32.232,2.613L529.9,519.166l23.92-71.328,13.588,72.882-2.471,84,24.706,2.471,13.588-91.411s8.647-109.941-7.412-112.411S515.524,398.426,515.524,398.426Z" transform="translate(-204.514 -224.725)" fill="#2f2e41"/>
      <path id="Path_122" data-name="Path 122" d="M425.655,432.309l1.792,30.543h16.059l1.235-18.529Z" transform="translate(-64.555 -65.564)" fill="#2f2e41"/>
      <path id="Path_123" data-name="Path 123" d="M583.8,654.383s-3.706-13.588-6.177-6.177-6.176,16.059-6.176,16.059-9.882,9.882,2.471,13.588,21,2.47,21,6.176,42,12.353,39.529-1.235-19.765-19.765-19.765-19.765-10.466-19.765-14.5-18.529-5.267,6.176-5.267,6.176Z" transform="translate(-218.439 -262.036)" fill="#2f2e41"/>
      <path id="Path_124" data-name="Path 124" d="M331.221,420.261l-2.47,22.235h17.294l5.677-21.6Z" transform="translate(-49.858 -63.737)" fill="#2f2e41"/>
      <circle id="Ellipse_118" data-name="Ellipse 118" cx="21" cy="21" r="21" transform="translate(338.187 5.703)" fill="#a0616a"/>
      <path id="Path_125" data-name="Path 125" d="M585.051,258.494s-12.785,9.421-28.844-1.7c0,0-5.09,0-14.113.327-9.4.34-25.941,9.882-25.941,9.882l-1.515,61.052,10.162-4.228s-18.529,44.47-9.882,50.647,3.706,8.647,3.706,8.647,12.353-9.882,22.235-2.471,65.47,7.412,65.47,4.941a5.411,5.411,0,0,0-1.235-3.706s7.412-9.882-3.706-23.47c0,0,8.647-11.118,6.176-17.294l14.823-51.882s-3.706-13.588-13.588-17.294S585.051,258.494,585.051,258.494Z" transform="translate(-210.085 -203.245)" fill="#575a89"/>
      <path id="Path_126" data-name="Path 126" d="M514.3,271.3l-9.882-2.471s-21,25.941-27.177,37.058S437.713,372.6,437.713,376.3s-2.47,11.118-2.47,11.118l13.588,4.941s4.941-7.412,6.176-7.412,29.647-25.941,28.412-29.647,11.118-11.118,11.118-11.118,4.065-4.07,4.941-4.941,17.294-18.529,17.294-18.529Z" transform="translate(-198.35 -205.07)" fill="#575a89"/>
      <path id="Path_127" data-name="Path 127" d="M707.986,414.949l3.706,7.412s14.823,25.941,2.471,25.941-14.823-22.235-14.823-22.235l-1.235-7.412Z" transform="translate(-238.215 -227.23)" fill="#a0616a"/>
      <path id="Path_128" data-name="Path 128" d="M619.031,280.543l9.882-2.471s21,25.941,27.176,37.059,39.529,66.705,39.529,70.411,2.471,11.118,2.471,11.118L684.5,401.6s-4.941-7.412-6.176-7.412-29.647-25.941-28.412-29.646S638.8,353.426,638.8,353.426s-4.941-3.706-4.941-4.941-17.294-18.529-17.294-18.529Z" transform="translate(-225.848 -206.472)" fill="#575a89"/>
      <path id="Path_129" data-name="Path 129" d="M585.8,210.288s2.536,5.487-7.607,3.292c0,0-3.8,2.195-3.8-1.1,0,0-5.071,5.487-6.339,2.195s-3.8,1.1-3.8,1.1l-2.536-5.487-2.536,3.292H550.3s-2.536-21.949,27.891-19.754S593.651,230.8,593.651,230.8s-.245-6.242-2.781-2.95S585.8,210.288,585.8,210.288Z" transform="translate(-215.792 -193.672)" fill="#2f2e41"/>
      <path id="Path_130" data-name="Path 130" d="M496.838,631.96s-2.2-13.912,3.1-8.167S512.159,635.9,512.159,635.9s13.068,4.954,3.325,13.4-18.135,10.873-16.613,14.253-33.227,28.506-36.552,15.1,9.909-26.136,9.909-26.136,1.43-22.319,5.613-22.847,7.338,3.47,7.338,3.47Z" transform="translate(-202.375 -258.693)" fill="#2f2e41"/>
    </g>
    <text id="_" data-name="?" transform="translate(1093 416)" fill="#32cd32" font-size="38" font-family="CircularStd-Bold, Circular Std Bold" font-weight="700"><tspan x="0" y="0">?</tspan></text>
    <text id="_2" data-name="?" transform="translate(803 434)" fill="#32cd32" font-size="74" font-family="CircularStd-Bold, Circular Std Bold" font-weight="700"><tspan x="0" y="0">?</tspan></text>
    <text id="_3" data-name="?" transform="translate(980 366)" fill="#32cd32" font-size="32" font-family="CircularStd-Bold, Circular Std Bold" font-weight="700"><tspan x="0" y="0">?</tspan></text>
  </g>
</svg>
